"ID","DATE_CREATED","DATE_MODIFIED","UPDT_ID","TITLE","PRODUCT_ID","IMAGE_LINK","IMAGE_LINK_ID","STATUS"
"1ce7ad44-1360-4aac-a3d2-51d1830110f1","2022-06-21 06:36:18","2022-06-21 06:36:18",a591995f-6da6-46cf-b798-513e5ea68f96,"15. LAUGFS-12 kg.jpg","0fb77979-bd39-42be-bb18-aeec60474f18",https://uat-gasmonkey.oss.net.bd/uat-gas-monkey-file/4181e734-55d8-4da8-bb68-29f830bf3fd4.jpg,"",1
"26a01110-ad88-4bde-98b6-b35c3d3e0ad9","2022-06-21 06:39:36","2022-06-21 06:39:36",a591995f-6da6-46cf-b798-513e5ea68f96,"14. G Gas-12 kg.png","1d743b15-4a4c-46c8-8144-44f646928cca",https://uat-gasmonkey.oss.net.bd/uat-gas-monkey-file/b20e4300-aaf8-447f-b1f2-7261ae4c32d9.png,"",1
"317e8ef7-0430-4f1a-84ff-fe4acc82a894","2022-06-21 06:35:05","2022-06-21 06:35:05",a591995f-6da6-46cf-b798-513e5ea68f96,"19. Uni-12 kg-20 mm.png","0432d899-2fda-416c-9327-ed85910b97fe",https://uat-gasmonkey.oss.net.bd/uat-gas-monkey-file/4d0b0b5b-9800-4fed-9336-f6e8c7a685a0.png,"",1
"4f9e19d4-164b-4af7-ba4a-6d7e5d3a274f","2022-06-21 06:44:09","2022-06-21 06:44:09",a591995f-6da6-46cf-b798-513e5ea68f96,"10. Beximco-12 kg.png","45c82c5c-056c-4dc0-99d4-7ec39ebea339",https://uat-gasmonkey.oss.net.bd/uat-gas-monkey-file/6793ad09-7894-445f-93b8-8f81cc2b2452.png,"",1
"595d5ac6-1841-4a9f-a517-45449ccc4db5","2022-06-21 06:42:12","2022-06-21 06:42:12",a591995f-6da6-46cf-b798-513e5ea68f96,"02. Bashundhara-12 kg.png","2321dacc-2471-488f-8d84-d9317b07ef50",https://uat-gasmonkey.oss.net.bd/uat-gas-monkey-file/024988f0-2ce0-41b5-8174-8d962de9b2c2.png,"",1
"6a8dd9b1-6d1b-4a4f-b995-cb21c924c55c","2022-06-21 10:57:43","2022-06-21 10:57:43",a591995f-6da6-46cf-b798-513e5ea68f96,"10. Beximco-12 kg.png","02e8a1d4-23ec-486e-aa2a-05593001de69",https://uat-gasmonkey.oss.net.bd/uat-gas-monkey-file/7577f70c-6a49-48d9-b8ea-eb042f5c22fd.png,"",1
"752bf958-dbeb-4f9c-957e-4a562334f27b","2022-06-21 06:43:20","2022-06-21 06:43:20",a591995f-6da6-46cf-b798-513e5ea68f96,"03. Omera-12 kg.jpg","3dd5a810-1026-4056-9cf9-ea5dcb69cf12",https://uat-gasmonkey.oss.net.bd/uat-gas-monkey-file/ba6b644b-618d-4b06-a29a-9bdfe9141e3a.jpg,"",1
"7e3f52f8-2789-4309-828a-82161947e1f8","2022-06-21 06:38:28","2022-06-21 06:38:28",a591995f-6da6-46cf-b798-513e5ea68f96,"18. Totalgaz-12 kg.jpg","15425024-3862-4235-87f6-2b7edf0743b2",https://uat-gasmonkey.oss.net.bd/uat-gas-monkey-file/95cef0ca-a841-48a5-a598-133343f3c0b7.jpg,"",1
"92e0ff8e-91d3-44e8-b939-574927d9e04a","2022-06-21 11:20:36","2022-06-21 11:20:36",a591995f-6da6-46cf-b798-513e5ea68f96,gas.jpeg,"139b36d0-dc0e-4d61-869a-e337c092115d",https://uat-gasmonkey.oss.net.bd/uat-gas-monkey-file/aa699dbd-7e2d-4610-86cc-c1daea314c6d.jpeg,"",1
c0c6ccaa-9043-4176-b506-9d71933c66fe,"2022-06-21 06:41:02","2022-06-21 06:41:02",a591995f-6da6-46cf-b798-513e5ea68f96,"12. Petromax-12 kg.jpg","1fbf2e18-2e79-4e7f-8994-ee257cc2e5e2",https://uat-gasmonkey.oss.net.bd/uat-gas-monkey-file/44bbc98b-c1fb-47d9-a30a-387467f51346.jpg,"",1
